{'type': 'FeatureCollection', 'features': [
{'id': 1, 'type': 'Feature', 'geometry': {'type': 'LineString', 'coordinates': [[5.6999868, 45.1531223], [5.699682, 45.1532657], [5.6994354, 45.1534263], [5.6992511, 45.1536114], [5.6991508, 45.1538009], [5.6997216, 45.1549058], [5.6995352, 45.1547831], [5.6994025, 45.1546731], [5.6992381, 45.1544908], [5.6991162, 45.154309], [5.6990911, 45.1542065], [5.6990901, 45.1540547], [5.6991086, 45.1539326], [5.6991508, 45.1538009]]}, 'properties': {'name': 'Rue Albert Carpano'}}, 
{'id': 2, 'type': 'Feature', 'geometry': {'type': 'LineString', 'coordinates': [[5.7163319, 45.1401939], [5.7163361, 45.1403298], [5.7165359, 45.1403267], [5.7165318, 45.1401901]]}, 'properties': {'name': 'Rue Albert Einstein'}}, 
{'id': 3, 'type': 'Feature', 'geometry': {'type': 'LineString', 'coordinates': [[5.7176083, 45.1480923], [5.7176235, 45.1480187], [5.7176348, 45.1479568], [5.7176717, 45.1479287], [5.7177159, 45.1479097], [5.7177427, 45.1478986], [5.7177768, 45.1478844]]}, 'properties': {'name': 'Rue Albert Londres'}}, 
{'id': 4, 'type': 'Feature', 'geometry': {'type': 'LineString', 'coordinates': [[5.7068825, 45.1572878], [5.7068225, 45.1568554], [5.7069175, 45.1567816], [5.7082178, 45.1563939], [5.7069154, 45.1575062], [5.7070595, 45.1584878], [5.7069154, 45.1575062], [5.7068825, 45.1572878]]}, 'properties': {'name': 'Rue Ambroise Croizat'}}, 
{'id': 5, 'type': 'Feature', 'geometry': {'type': 'LineString', 'coordinates': [[5.7017062, 45.1485259], [5.7018008, 45.1485125], [5.7053676, 45.1480069]]}, 'properties': {'name': 'Rue Anatole France'}}, 
{'id': 6, 'type': 'Feature', 'geometry': {'type': 'LineString', 'coordinates': [[5.7214886, 45.1473769], [5.7215102, 45.1474567], [5.7215355, 45.1475746], [5.721522, 45.1476275], [5.721152, 45.1481477], [5.7210446, 45.1483331], [5.7210446, 45.1483634], [5.7212957, 45.1487701], [5.7213247, 45.148817], [5.7213724, 45.148897], [5.7214034, 45.1489489], [5.7219238, 45.1473168], [5.7218823, 45.1471571], [5.7219093, 45.1470952], [5.7222457, 45.1467191], [5.723498, 45.1455459]]}, 'properties': {'name': 'Rue Antoine Polotti'}}, 
{'id': 7, 'type': 'Feature', 'geometry': {'type': 'LineString', 'coordinates': [[5.7339001, 45.1461419], [5.7338302, 45.1458007], [5.7338473, 45.1457099], [5.7338988, 45.1456614], [5.7339581, 45.1456616], [5.7348824, 45.1457645], [5.7355776, 45.1458312], [5.7354759, 45.1452879]]}, 'properties': {'name': 'Rue Arthur Rimbaud'}}, 
{'id': 8, 'type': 'Feature', 'geometry': {'type': 'LineString', 'coordinates': [[5.7112788, 45.1408234], [5.7113692, 45.1411583], [5.7115006, 45.1415961], [5.7117278, 45.142138], [5.7123359, 45.1432284], [5.7127364, 45.1438788]]}, 'properties': {'name': 'Rue Auguste Delaune'}}, 
{'id': 9, 'type': 'Feature', 'geometry': {'type': 'LineString', 'coordinates': [[5.7357486, 45.1476594], [5.7357886, 45.1476331], [5.7358269, 45.1476069], [5.7369044, 45.1464412], [5.737782, 45.1455119], [5.7390515, 45.1441794], [5.7393058, 45.1439223], [5.7393509, 45.143876]]}, 'properties': {'name': 'Rue Baudelaire'}}, 
{'id': 10, 'type': 'Feature', 'geometry': {'type': 'LineString', 'coordinates': [[5.7104694, 45.148852], [5.7112014, 45.1482121], [5.7113375, 45.1481645], [5.7116456, 45.1481474], [5.7123962, 45.1481058], [5.7124905, 45.1481074], [5.7125292, 45.1481198], [5.7125811, 45.1481443]]}, 'properties': {'name': 'Rue Camille Blanc'}}, 
{'id': 11, 'type': 'Feature', 'geometry': {'type': 'LineString', 'coordinates': [[5.7204326, 45.1492567], [5.7204566, 45.1493103], [5.7204914, 45.1493616], [5.7205122, 45.1494076], [5.7205295, 45.1494914], [5.7204797, 45.14956], [5.7202631, 45.1496442], [5.7202209, 45.1497098], [5.7201999, 45.1497425], [5.7203533, 45.1499553], [5.7203962, 45.150022], [5.7204795, 45.1501554], [5.720531, 45.1502369], [5.7207061, 45.1505216], [5.7207843, 45.1506742], [5.7208393, 45.1507433]]}, 'properties': {'name': 'Rue Carmagnole Liberte'}}, 
{'id': 12, 'type': 'Feature', 'geometry': {'type': 'LineString', 'coordinates': [[5.7141212, 45.1378374], [5.7140854, 45.1372083], [5.7140553, 45.1366771], [5.714052, 45.1366025], [5.7140347, 45.1365627], [5.7139908, 45.136509], [5.7129993, 45.1355023]]}, 'properties': {'name': 'Rue Clement Ader'}}, 
{'id': 13, 'type': 'Feature', 'geometry': {'type': 'LineString', 'coordinates': [[5.7080623, 45.1559088], [5.7080024, 45.1559191], [5.7079422, 45.1559295], [5.7074144, 45.1560248], [5.7072439, 45.1560269], [5.7070692, 45.1559799], [5.7069512, 45.1559041], [5.70686, 45.1557902], [5.7064783, 45.1546776], [5.706469, 45.1546506], [5.7064606, 45.154626]]}, 'properties': {'name': 'Rue Colonel Fabien'}}, 
{'id': 14, 'type': 'Feature', 'geometry': {'type': 'LineString', 'coordinates': []}, 'properties': {'name': 'Rue Commandant Lenoir'}}, 
{'id': 15, 'type': 'Feature', 'geometry': {'type': 'LineString', 'coordinates': [[5.7292575, 45.1548345], [5.7293001, 45.1548218], [5.7293239, 45.1547893], [5.7293484, 45.1541858], [5.7294182, 45.154148], [5.7294182, 45.154008], [5.7293723, 45.1539586], [5.7293452, 45.1539447], [5.7292841, 45.1539134], [5.7292948, 45.1535919], [5.729338, 45.1535576], [5.7293538, 45.1531833], [5.7293029, 45.1531474], [5.7291661, 45.153051], [5.7289783, 45.1529185], [5.7289292, 45.152887], [5.7288181, 45.1528159]]}, 'properties': {'name': "Rue d'Aquitaine"}}, 
{'id': 16, 'type': 'Feature', 'geometry': {'type': 'LineString', 'coordinates': [[5.7182296, 45.1535567], [5.7187875, 45.15336]]}, 'properties': {'name': "Rue d'Auvergne"}}, 
{'id': 17, 'type': 'Feature', 'geometry': {'type': 'LineString', 'coordinates': [[5.7234658, 45.1437903], [5.7216997, 45.1446356], [5.7206471, 45.145289], [5.7206171, 45.1453925], [5.7206046, 45.1454627], [5.7206109, 45.1455242], [5.720665, 45.1458031], [5.7206831, 45.1458617], [5.720792, 45.1462153], [5.7208822, 45.1465578], [5.7208918, 45.1465963], [5.7210185, 45.1471042], [5.7211, 45.1474305], [5.7211, 45.1474305], [5.7211104, 45.1474763]]}, 'properties': {'name': "Rue d'Estienne d'Orves"}}, 
{'id': 18, 'type': 'Feature', 'geometry': {'type': 'LineString', 'coordinates': [[5.7052292, 45.1438239], [5.7067294, 45.143501], [5.7073571, 45.1433784], [5.7078575, 45.1434824], [5.7083438, 45.1435847], [5.7084194, 45.1436056]]}, 'properties': {'name': "Rue d'Oran"}}, 
{'id': 19, 'type': 'Feature', 'geometry': {'type': 'LineString', 'coordinates': [[5.7013782, 45.154384], [5.7010653, 45.1545552], [5.7010678, 45.1561433], [5.7011112, 45.1562179]]}, 'properties': {'name': 'Rue Daniel Rebuffet'}}, 
{'id': 20, 'type': 'Feature', 'geometry': {'type': 'LineString', 'coordinates': [[5.7137641, 45.1587533], [5.7135779, 45.1588385], [5.7135779, 45.1588385], [5.7134411, 45.1588682], [5.7198035, 45.1587934], [5.7195787, 45.1588121], [5.7193754, 45.1588269], [5.7190951, 45.1588113], [5.718985, 45.1587942], [5.7187367, 45.1587163], [5.7184363, 45.1586134], [5.7182046, 45.15851], [5.7178535, 45.1583532], [5.7177607, 45.1583118], [5.717677, 45.1582764], [5.7175186, 45.1582037], [5.7173623, 45.158134], [5.7173117, 45.1581114], [5.7169281, 45.1579401], [5.7166189, 45.1578021], [5.7163722, 45.1577085], [5.7163105, 45.1577002], [5.716281, 45.1576962], [5.7161147, 45.1576901], [5.715998, 45.1576868], [5.7158565, 45.1576862], [5.7157223, 45.1577154], [5.715519, 45.157793], [5.7155044, 45.1577982]]}, 'properties': {'name': 'Rue de Bretagne'}}]}
